…
# Check problematic rows where victim_age is NA after conversion
problematic_rows <- homicides %>% filter(is.na(victim_age))
print(problematic_rows)
```

    ## # A tibble: 290 × 14
    ##    uid        reported_date victim_last victim_first victim_race victim_age
    ##    <chr>              <dbl> <chr>       <chr>        <chr>            <dbl>
    ##  1 Alb-000012      20100218 LUJAN       KEVIN        White               NA
    ##  2 Alb-000122      20121026 MACAIO      WESTFALL     White               NA
    ##  3 Alb-000253      20160309 MOUZON      AALIYAH      White               NA
    ##  4 Alb-000286      20160810 SANCHEZ     IRVIN        White               NA
    ##  5 Atl-000895      20081208 JONES       DAVID        Black               NA
    ##  6 Atl-000993      20090130 DAVENPORT   LEITHA       Black               NA
    ##  7 Atl-001228      20111030 GRIER       WILLIE       Black               NA
    ##  8 Atl-001356      20130508 BENTON      WAVA         Black               NA
    ##  9 Atl-001586      20151027 Unknown     Unknown      Black               NA
    ## 10 Bat-000301      20160621 JAMES       WILLIE       Black               NA
    ## # ℹ 280 more rows
    ## # ℹ 8 more variables: victim_sex <chr>, city <chr>, state <chr>, lat <dbl>,
    ## #   lon <dbl>, disposition <chr>, city_state <chr>, solved_binary <dbl>
…
``` r
 or_results <- city_models %>%
   mutate(or_male_vs_female = map(tidy_model, ~ filter(., term == "victim_sexMale"))) %>%
   select(city_state, or_male_vs_female) %>%
   unnest(cols = or_male_vs_female) %>%
  select(city_state, estimate, conf.low, conf.high)
 print(or_results)
```

    ## # A tibble: 47 × 4
    ## # Groups:   city_state [47]
    ##    city_state      estimate conf.low conf.high
    ##    <chr>              <dbl>    <dbl>     <dbl>
    ##  1 Albuquerque, NM    1.77     0.825     3.76 
    ##  2 Atlanta, GA        1.00     0.680     1.46 
    ##  3 Baltimore, MD      0.426    0.324     0.558
    ##  4 Baton Rouge, LA    0.381    0.204     0.684
    ##  5 Birmingham, AL     0.870    0.571     1.31 
    ##  6 Boston, MA         0.674    0.353     1.28 
    ##  7 Buffalo, NY        0.521    0.288     0.936
    ##  8 Charlotte, NC      0.884    0.551     1.39 
    ##  9 Chicago, IL        0.410    0.336     0.501
    ## 10 Cincinnati, OH     0.400    0.231     0.667
    ## # ℹ 37 more rows
…
